Lucas S. Macoris – The Capital Asset Pricing Model (CAPM) in practice
…
#Collect data, select necessary columns, and calculate weekly returns
Stock_Data=assets%>%
  tq_get(from=start,to=end)%>%
  select(symbol,date,adjusted)%>%
  group_by(symbol)%>%
  tq_transmute(select = adjusted,
               mutate_fun = weeklyReturn,
               col_rename = 'weekly_return')

#Left join when column names are different
Full_Data=Stock_Data%>%left_join(FF_Data,by=c('date'='Date'))

# A tibble: 530 × 5
# Groups:   symbol [10]
   symbol date       weekly_return      MRP       Rf
   <chr>  <date>             <dbl>    <dbl>    <dbl>
 1 DOW    2024-01-05      -0.00922 -0.0188  0.000880
 2 DOW    2024-01-12      -0.0265   0.0163  0.00110 
 3 DOW    2024-01-19      -0.0105   0.00991 0.000880
 4 DOW    2024-01-26       0.0237   0.0104  0.00110 
 5 DOW    2024-02-02      -0.0118   0.0119  0.00108 
 6 DOW    2024-02-09       0.0107   0.0148  0.00105 
 7 DOW    2024-02-16       0.0276  -0.00293 0.00105 
 8 DOW    2024-02-23       0.0164   0.0125  0.000840
 9 DOW    2024-03-01       0.00146  0.0106  0.00105 
10 DOW    2024-03-08       0.0151  -0.00384 0.00105 
# ℹ 520 more rows
…
#Apply the custom function to tq_transmute in rolling format
rolling_regs=RYAM%>%
  tq_transmute(
      mutate_fun = rollapply,
      by.column=FALSE,
      width=24, #Use latest 24 weeks
      FUN = custom_OLS,
      col_rename = c('alpha','beta'))%>%
  filter(!is.na(alpha))

# A tibble: 30 × 4
# Groups:   symbol [1]
   symbol date         alpha     beta
   <chr>  <date>       <dbl>    <dbl>
 1 RYAM   2024-06-14 0.0122   0.274  
 2 RYAM   2024-06-21 0.0110   0.311  
 3 RYAM   2024-06-28 0.0106   0.510  
 4 RYAM   2024-07-05 0.00960  0.387  
 5 RYAM   2024-07-12 0.00884  0.358  
 6 RYAM   2024-07-19 0.0122   0.00874
 7 RYAM   2024-07-26 0.0151  -0.186  
 8 RYAM   2024-08-02 0.0117   0.254  
 9 RYAM   2024-08-09 0.0222   0.334  
10 RYAM   2024-08-16 0.0288   0.615  
# ℹ 20 more rows
…
