Lucas S. Macoris – Fama French and Multi-Factor Models of Risk
…
#Convert the hf_data to a data.frame object and adjust columns
 hf_data = hf_data%>%
  as.data.frame()%>%
  rownames_to_column('date')%>%
  mutate(date=as.Date(date))

#Merge both datasets by date
merged_df <- hf_data%>%
  #Merge
  left_join(ff_data, by = "date")%>%
  #Pivot the data for each strategy
  pivot_longer(cols = -c(date, MKT_MINUS_RF, SMB, HML, RF), names_to = "strategy", values_to = "return") %>%
  mutate(excess_return = return - RF)

# A tibble: 1,902 × 8
   date       MKT_MINUS_RF     SMB    HML     RF strategy   return excess_return
   <date>            <dbl>   <dbl>  <dbl>  <dbl> <chr>       <dbl>         <dbl>
 1 1997-01-01       0.0005 -0.0005 0      0.0045 Convertib… 0.0119        0.0074
 2 1997-01-01       0.0005 -0.0005 0      0.0045 CTA Global 0.0393        0.0348
 3 1997-01-01       0.0005 -0.0005 0      0.0045 Distresse… 0.0178        0.0133
 4 1997-01-01       0.0005 -0.0005 0      0.0045 Emerging … 0.0791        0.0746
 5 1997-01-01       0.0005 -0.0005 0      0.0045 Equity Ma… 0.0189        0.0144
 6 1997-01-01       0.0005 -0.0005 0      0.0045 Event Dri… 0.0213        0.0168
 7 1997-02-01       0.003  -0.0152 0.0211 0.0039 Convertib… 0.0123        0.0084
 8 1997-02-01       0.003  -0.0152 0.0211 0.0039 CTA Global 0.0298        0.0259
 9 1997-02-01       0.003  -0.0152 0.0211 0.0039 Distresse… 0.0122        0.0083
10 1997-02-01       0.003  -0.0152 0.0211 0.0039 Emerging … 0.0525        0.0486
# ℹ 1,892 more rows
…
FF_results <- merged_df%>%
  #Group by strategy
  group_by(strategy)%>%
  #Nest the data
  nest()%>%
  #For each nest, map the lm() function and the tidy function
  mutate(model = map(data, ~ lm(excess_return ~ MKT_MINUS_RF + HML + SMB, data = .)),
         results = map(model, tidy)) %>%
  #Unnest the results
  unnest(results)%>%
  #Select the desired columns
  select(strategy, term, estimate, std.error, p.value)

# A tibble: 24 × 5
# Groups:   strategy [6]
   strategy              term         estimate std.error  p.value
   <chr>                 <chr>           <dbl>     <dbl>    <dbl>
 1 Convertible Arbitrage (Intercept)   0.00313  0.000968 1.38e- 3
 2 Convertible Arbitrage MKT_MINUS_RF  0.0663   0.0141   4.10e- 6
 3 Convertible Arbitrage HML          -0.00705  0.0220   7.49e- 1
 4 Convertible Arbitrage SMB           0.0216   0.0326   5.08e- 1
 5 CTA Global            (Intercept)   0.00293  0.00134  2.96e- 2
 6 CTA Global            MKT_MINUS_RF  0.0248   0.0196   2.06e- 1
 7 CTA Global            HML          -0.0332   0.0305   2.76e- 1
 8 CTA Global            SMB          -0.0500   0.0452   2.69e- 1
 9 Distressed Securities (Intercept)   0.00381  0.00107  4.10e- 4
10 Distressed Securities MKT_MINUS_RF  0.100    0.0156   4.28e-10
# ℹ 14 more rows
…
