Collecting, Organizing, and Manipulating Financial Data - Replication – Lucas S. Macoris
…
select(symbol,date,adjusted)%>%
#Make sure date is read as a Date object
mutate(date=as.Date(date))%>%
#Filter for observations happening in 2025
filter(year(date)==2025)%>%
#Arrange from chronological order
arrange(date)%>%
#Group by Symbol to perform the calculations
group_by(symbol)%>%
#Create the return
mutate(Return = adjusted/lag(adjusted,default = NA))%>%
#Remove NAs before doing the cumulative product
mutate(Cum_Return = cumprod(Return)-1)

# A tibble: 126 × 5
# Groups:   symbol [7]
   symbol date       adjusted Return Cum_Return
   <chr>  <date>        <dbl>  <dbl>      <dbl>
 1 AAPL   2025-01-02     244. NA             NA
 2 AMZN   2025-01-02     220. NA             NA
 3 GOOG   2025-01-02     191. NA             NA
 4 META   2025-01-02     599. NA             NA
 5 MSFT   2025-01-02     419. NA             NA
 6 NVDA   2025-01-02     138. NA             NA
 7 TSLA   2025-01-02     379. NA             NA
 8 AAPL   2025-01-03     243.  0.998         NA
 9 AMZN   2025-01-03     224.  1.02          NA
10 GOOG   2025-01-03     193.  1.01          NA
# ℹ 116 more rows
…
