Bridging Data with Programming - Replication
…
Opening this file promptly shows that the .csv file is in a very messy format, with different columns that refer to the same variable, like closing prices. Using tidyr facilitates the transitions towards a tidy format that will be key for data manipulation:

read.csv('Assets/Multiple_Assets.csv')%>%
  pivot_longer(cols=matches('Open|High|Low|Close|Volume|Adjusted'),
               names_to = c('Asset','Metric'),
               names_sep = '\\.',
               values_to = 'Value')%>%
  mutate(Date=as.Date(Timestamp),
         Year=year(Date))%>%
  group_by(Asset,Metric,Year)%>%
  summarize(Value=mean(Value,na.rm=TRUE))%>%
  pivot_wider(names_from = c('Metric'),values_from = 'Value')

# A tibble: 57 × 8
# Groups:   Asset [3]
   Asset  Year Adjusted Close  High   Low  Open      Volume
   <chr> <dbl>    <dbl> <dbl> <dbl> <dbl> <dbl>       <dbl>
 1 AAPL   2007     3.86  4.58  4.65  4.51  4.59  984047751.
 2 AAPL   2008     4.28  5.07  5.18  4.96  5.08 1130360498.
 3 AAPL   2009     4.42  5.24  5.30  5.18  5.24  568467011.
 4 AAPL   2010     7.83  9.28  9.37  9.17  9.28  599305267.
 5 AAPL   2011    11.0  13.0  13.1  12.9  13.0   492298967.
 6 AAPL   2012    17.4  20.6  20.8  20.4  20.6   527856818.
 7 AAPL   2013    14.6  16.9  17.1  16.7  16.9   406434800 
 8 AAPL   2014    20.4  23.1  23.3  22.9  23.1   252610922.
 9 AAPL   2015    27.0  30.0  30.3  29.7  30.0   207397617.
10 AAPL   2016    24.0  26.2  26.4  25.9  26.1   153690124.
# ℹ 47 more rows
…
