Lucas S. Macoris – Manipulating time series Data
…
library(tidyquant)
library(tidyverse)

#Set up the list of assets
assets=c('AMZN','GOOG','META','GME')

#Filter out
assets%>%
  tq_get()%>%
  filter(symbol=='GOOG',
         date>='2020-01-01',
         date<='2024-12-31')

# A tibble: 1,258 × 8
   symbol date        open  high   low close   volume adjusted
   <chr>  <date>     <dbl> <dbl> <dbl> <dbl>    <dbl>    <dbl>
 1 GOOG   2020-01-02  67.1  68.4  67.1  68.4 28132000     68.1
 2 GOOG   2020-01-03  67.4  68.6  67.3  68.0 23728000     67.8
 3 GOOG   2020-01-06  67.5  69.8  67.5  69.7 34646000     69.5
 4 GOOG   2020-01-07  69.9  70.1  69.5  69.7 30054000     69.4
 5 GOOG   2020-01-08  69.6  70.6  69.5  70.2 30560000     70.0
 6 GOOG   2020-01-09  71.0  71.4  70.5  71.0 30018000     70.7
 7 GOOG   2020-01-10  71.4  71.7  70.9  71.5 36414000     71.2
 8 GOOG   2020-01-13  71.8  72.0  71.3  72.0 33046000     71.7
 9 GOOG   2020-01-14  72.0  72.1  71.4  71.5 31178000     71.3
10 GOOG   2020-01-15  71.5  72.1  71.5  72.0 25654000     71.7
# ℹ 1,248 more rows
…
#Merge Data 
inner_join(NFLX,SP500)

# A tibble: 528 × 3
   date           NFLX    SP500
   <date>        <dbl>    <dbl>
 1 2015-01-09 -0.0563   0      
 2 2015-01-16  0.0244  -0.00651
 3 2015-01-23  0.297   -0.0124 
 4 2015-01-30  0.00992  0.0160 
 5 2015-02-06  0.00579 -0.0277 
 6 2015-02-13  0.0489   0.0303 
 7 2015-02-20  0.0260   0.0202 
 8 2015-02-27 -0.00688  0.00635
 9 2015-03-06 -0.0438  -0.00275
10 2015-03-13 -0.0346  -0.0158 
# ℹ 518 more rows
…
#Assuming you have already loaded the tidyquant and the tidyverse packages

#Set up the list of assets
assets=c('AMZN')

assets%>%
  tq_get()%>%
  select(date,symbol,adjusted)%>%
  group_by(symbol)%>%
  tq_mutate(adjusted, mutate_fun = SMA, n = 5)%>%
  tq_mutate(adjusted, mutate_fun = EMA, n = 5)

# A tibble: 2,542 × 5
# Groups:   symbol [1]
   symbol date       adjusted   SMA   EMA
   <chr>  <date>        <dbl> <dbl> <dbl>
 1 AMZN   2015-01-02     15.4  NA    NA  
 2 AMZN   2015-01-05     15.1  NA    NA  
 3 AMZN   2015-01-06     14.8  NA    NA  
 4 AMZN   2015-01-07     14.9  NA    NA  
 5 AMZN   2015-01-08     15.0  15.0  15.0
 6 AMZN   2015-01-09     14.8  14.9  15.0
 7 AMZN   2015-01-12     14.6  14.8  14.8
 8 AMZN   2015-01-13     14.7  14.8  14.8
 9 AMZN   2015-01-14     14.7  14.8  14.8
10 AMZN   2015-01-15     14.3  14.6  14.6
# ℹ 2,532 more rows
…
