Data Case I - Investing in the Pharmaceutical Industry – Lucas S. Macoris
…
Exercise 2

Using the tidyquant package, use the object you’ve just created with the tq_transmute function to compute the yearly returns for each stock over the analysis period. More specifically, pass the yearlyReturn function to adjusted column using the tq_transmute, labeling this new variable as yearly_return. Arrange your dataset by year and in descending order of yearly_return (highest-to-lowest). Store this into a new object called, for example, yearly_returns. Which stock had the highest return in 2024, and which one had the lowest? Prompt the results in your session.

yearly_returns=financial_data%>%
  group_by(symbol)%>%
  tq_transmute(select = adjusted,
               mutate_fun = yearlyReturn,
               col_rename = 'yearly_return')%>%
  arrange(year(date),desc(yearly_return))

#Full analysis
yearly_returns

# A tibble: 50 × 3
# Groups:   symbol [10]
   symbol date       yearly_return
   <chr>  <date>             <dbl>
 1 LLY    2020-12-31        0.303 
 2 ABBV   2020-12-31        0.263 
 3 NVO    2020-12-31        0.206 
 4 JNJ    2020-12-31        0.107 
 5 PFE    2020-12-31        0.0317
 6 AZN    2020-12-31        0.0204
 7 BMY    2020-12-31        0.0104
 8 AMGN   2020-12-31       -0.0159
 9 GILD   2020-12-31       -0.0706
10 MRK    2020-12-31       -0.0830
# ℹ 40 more rows
…
yearly_volatility=financial_data%>%
  group_by(symbol)%>%
  tq_transmute(select = adjusted,
               mutate_fun = dailyReturn,
               col_rename = 'daily_return')%>%
  tq_transmute(select = daily_return,
               mutate_fun = apply.yearly,
               FUN=StdDev.annualized,
               col_rename = 'yearly_volatility')

#Full analysis
yearly_volatility

# A tibble: 50 × 3
# Groups:   symbol [10]
   symbol date       yearly_volatility
   <chr>  <date>                 <dbl>
 1 LLY    2020-12-31             0.426
 2 LLY    2021-12-31             0.317
 3 LLY    2022-12-30             0.273
 4 LLY    2023-12-29             0.288
 5 LLY    2024-12-30             0.303
 6 NVO    2020-12-31             0.315
 7 NVO    2021-12-31             0.244
 8 NVO    2022-12-30             0.325
 9 NVO    2023-12-29             0.306
10 NVO    2024-12-30             0.357
# ℹ 40 more rows
…
#Option 2
yearly_sharpe_2=yearly_returns%>%
  left_join(yearly_volatility)%>%
  group_by(symbol)%>%
  mutate(yearly_sharpe=yearly_return/yearly_volatility)

yearly_sharpe_1

# A tibble: 50 × 3
# Groups:   symbol [10]
   symbol date       yearly_sharpe
   <chr>  <date>             <dbl>
 1 LLY    2020-12-31         0.708
 2 LLY    2021-12-31         2.09 
 3 LLY    2022-12-30         1.26 
 4 LLY    2023-12-29         2.13 
 5 LLY    2024-12-30         1.11 
 6 NVO    2020-12-31         0.652
 7 NVO    2021-12-31         2.60 
 8 NVO    2022-12-30         0.701
 9 NVO    2023-12-29         1.81 
10 NVO    2024-12-30        -0.456
# ℹ 40 more rows

yearly_sharpe_2

# A tibble: 50 × 5
# Groups:   symbol [10]
   symbol date       yearly_return yearly_volatility yearly_sharpe
   <chr>  <date>             <dbl>             <dbl>         <dbl>
 1 LLY    2020-12-31        0.303              0.426        0.711 
 2 ABBV   2020-12-31        0.263              0.349        0.754 
 3 NVO    2020-12-31        0.206              0.315        0.654 
 4 JNJ    2020-12-31        0.107              0.303        0.355 
 5 PFE    2020-12-31        0.0317             0.357        0.0889
 6 AZN    2020-12-31        0.0204             0.360        0.0566
 7 BMY    2020-12-31        0.0104             0.296        0.0352
 8 AMGN   2020-12-31       -0.0159             0.383       -0.0416
 9 GILD   2020-12-31       -0.0706             0.375       -0.188 
10 MRK    2020-12-31       -0.0830             0.318       -0.261 
# ℹ 40 more rows
…
